module gitlab.com/mastic/gin-stack-sample

go 1.18

require (
	github.com/gin-gonic/gin v1.8.1
	github.com/kinbiko/jsonassert v1.1.0
	github.com/stretchr/testify v1.8.0
	gitlab.com/hd/lime v0.9.1
	gorm.io/driver/sqlite v1.3.6
	gorm.io/gorm v1.23.8
)

require (
	github.com/davecgh/go-spew v1.1.1 // indirect
	github.com/gin-contrib/cors v1.4.0 // indirect
	github.com/gin-contrib/sse v0.1.0 // indirect
	github.com/go-playground/locales v0.14.0 // indirect
	github.com/go-playground/universal-translator v0.18.0 // indirect
	github.com/go-playground/validator/v10 v10.11.0 // indirect
	github.com/goccy/go-json v0.9.10 // indirect
	github.com/jinzhu/inflection v1.0.0 // indirect
	github.com/jinzhu/now v1.1.5 // indirect
	github.com/json-iterator/go v1.1.12 // indirect
	github.com/leodido/go-urn v1.2.1 // indirect
	github.com/mattn/go-colorable v0.1.12 // indirect
	github.com/mattn/go-isatty v0.0.14 // indirect
	github.com/mattn/go-sqlite3 v1.14.14 // indirect
	github.com/modern-go/concurrent v0.0.0-20180306012644-bacd9c7ef1dd // indirect
	github.com/modern-go/reflect2 v1.0.2 // indirect
	github.com/pelletier/go-toml/v2 v2.0.2 // indirect
	github.com/pmezard/go-difflib v1.0.0 // indirect
	github.com/rs/zerolog v1.27.0 // indirect
	github.com/ugorji/go/codec v1.2.7 // indirect
	gitlab.com/hd/lock v1.1.0 // indirect
	golang.org/x/crypto v0.0.0-20220722155217-630584e8d5aa // indirect
	golang.org/x/net v0.0.0-20220728211354-c7608f3a8462 // indirect
	golang.org/x/sys v0.0.0-20220730100132-1609e554cd39 // indirect
	golang.org/x/text v0.3.7 // indirect
	google.golang.org/protobuf v1.28.1 // indirect
	gopkg.in/yaml.v2 v2.4.0 // indirect
	gopkg.in/yaml.v3 v3.0.1 // indirect
)
